sim/waves/mlp_top.vcd
$version Generated by VerilatedVcd $end
$timescale 1ps $end
 $scope module $rootio $end
  $var wire 1 # clk $end
  $var wire 1 $ reset $end
  $var wire 1 % wf_push_col0 $end
  $var wire 1 & wf_push_col1 $end
  $var wire 8 ' wf_data_in [7:0] $end
  $var wire 1 ( wf_reset $end
  $var wire 1 ) init_act_valid $end
  $var wire 16 * init_act_data [15:0] $end
  $var wire 1 + start_mlp $end
  $var wire 1 , weights_ready $end
  $var wire 16 - norm_gain [15:0] $end
  $var wire 32 . norm_bias [31:0] $end
  $var wire 5 / norm_shift [4:0] $end
  $var wire 16 0 q_inv_scale [15:0] $end
  $var wire 8 1 q_zero_point [7:0] $end
  $var wire 4 2 state [3:0] $end
  $var wire 5 3 cycle_cnt [4:0] $end
  $var wire 3 4 current_layer [2:0] $end
  $var wire 1 5 layer_complete $end
  $var wire 16 6 mmu_acc0_out [15:0] $end
  $var wire 16 7 mmu_acc1_out [15:0] $end
  $var wire 32 8 acc0 [31:0] $end
  $var wire 32 9 acc1 [31:0] $end
  $var wire 1 : acc_valid $end
 $upscope $end
 $scope module mlp_top $end
  $var wire 1 ; clk $end
  $var wire 1 < reset $end
  $var wire 1 = wf_push_col0 $end
  $var wire 1 > wf_push_col1 $end
  $var wire 8 ? wf_data_in [7:0] $end
  $var wire 1 @ wf_reset $end
  $var wire 1 A init_act_valid $end
  $var wire 16 B init_act_data [15:0] $end
  $var wire 1 C start_mlp $end
  $var wire 1 D weights_ready $end
  $var wire 16 E norm_gain [15:0] $end
  $var wire 32 F norm_bias [31:0] $end
  $var wire 5 G norm_shift [4:0] $end
  $var wire 16 H q_inv_scale [15:0] $end
  $var wire 8 I q_zero_point [7:0] $end
  $var wire 4 J state [3:0] $end
  $var wire 5 K cycle_cnt [4:0] $end
  $var wire 3 L current_layer [2:0] $end
  $var wire 1 M layer_complete $end
  $var wire 16 N mmu_acc0_out [15:0] $end
  $var wire 16 O mmu_acc1_out [15:0] $end
  $var wire 32 P acc0 [31:0] $end
  $var wire 32 Q acc1 [31:0] $end
  $var wire 1 R acc_valid $end
  $var wire 4 "$ IDLE [3:0] $end
  $var wire 4 #$ LOAD_WEIGHT [3:0] $end
  $var wire 4 $$ LOAD_ACT [3:0] $end
  $var wire 4 %$ COMPUTE [3:0] $end
  $var wire 4 &$ DRAIN [3:0] $end
  $var wire 4 '$ TRANSFER [3:0] $end
  $var wire 4 ($ NEXT_LAYER [3:0] $end
  $var wire 4 )$ WAIT_WEIGHTS [3:0] $end
  $var wire 4 *$ DONE [3:0] $end
  $var wire 32 +$ NUM_LAYERS [31:0] $end
  $var wire 4 S state_reg [3:0] $end
  $var wire 5 T cycle_cnt_reg [4:0] $end
  $var wire 3 U current_layer_reg [2:0] $end
  $var wire 1 V buffer_select $end
  $var wire 1 W weights_loaded $end
  $var wire 1 X en_load_weight $end
  $var wire 1 Y compute_phase $end
  $var wire 1 Z drain_phase $end
  $var wire 1 [ transfer_phase $end
  $var wire 8 \ wf_col0_out [7:0] $end
  $var wire 8 ] wf_col1_out [7:0] $end
  $var wire 8 ^ wf_col1_raw [7:0] $end
  $var wire 1 _ ub_a_wr_valid $end
  $var wire 1 ` ub_a_rd_ready $end
  $var wire 16 a ub_a_wr_data [15:0] $end
  $var wire 16 b ub_a_rd_data [15:0] $end
  $var wire 1 c ub_a_wr_ready $end
  $var wire 1 d ub_a_rd_valid $end
  $var wire 1 e ub_a_empty $end
  $var wire 1 f ub_b_wr_valid $end
  $var wire 1 g ub_b_rd_ready $end
  $var wire 16 h ub_b_wr_data [15:0] $end
  $var wire 16 i ub_b_rd_data [15:0] $end
  $var wire 1 j ub_b_wr_ready $end
  $var wire 1 k ub_b_rd_valid $end
  $var wire 1 l ub_b_empty $end
  $var wire 1 m act_ub_rd_valid $end
  $var wire 16 n act_ub_rd_data [15:0] $end
  $var wire 1 o act_ub_empty $end
  $var wire 8 p act_row0_data [7:0] $end
  $var wire 8 q act_row1_data [7:0] $end
  $var wire 8 r row1_skew_reg [7:0] $end
  $var wire 8 s mmu_row0_in [7:0] $end
  $var wire 8 t mmu_row1_in [7:0] $end
  $var wire 8 u mmu_col0_in [7:0] $end
  $var wire 8 v mmu_col1_in [7:0] $end
  $var wire 1 w en_capture_col0 $end
  $var wire 1 x en_capture_col1 $end
  $var wire 1 y accum_en $end
  $var wire 1 z addr_sel $end
  $var wire 1 { mmu_valid $end
  $var wire 1 | ap_valid $end
  $var wire 8 } ap_data_col0 [7:0] $end
  $var wire 8 ~ ap_data_col1 [7:0] $end
  $var wire 1 !! refill_valid $end
  $var wire 16 "! refill_data [15:0] $end
  $scope module accum_u $end
   $var wire 1 #! clk $end
   $var wire 1 $! reset $end
   $var wire 1 %! valid_in $end
   $var wire 1 &! accumulator_enable $end
   $var wire 1 '! addr_sel $end
   $var wire 16 (! mmu_col0_in [15:0] $end
   $var wire 16 )! mmu_col1_in [15:0] $end
   $var wire 32 *! acc_col0_out [31:0] $end
   $var wire 32 +! acc_col1_out [31:0] $end
   $var wire 1 ,! valid_out $end
   $var wire 1 -! aligned_valid $end
   $var wire 16 .! aligned_c0 [15:0] $end
   $var wire 16 /! aligned_c1 [15:0] $end
   $scope module u_align $end
    $var wire 1 0! clk $end
    $var wire 1 1! reset $end
    $var wire 1 2! valid_in $end
    $var wire 16 3! raw_col0 [15:0] $end
    $var wire 16 4! raw_col1 [15:0] $end
    $var wire 1 5! aligned_valid $end
    $var wire 16 6! align_col0 [15:0] $end
    $var wire 16 7! align_col1 [15:0] $end
    $var wire 16 8! col0_delay_reg [15:0] $end
    $var wire 1 9! pending $end
   $upscope $end
   $scope module u_mem $end
    $var wire 1 ,$ BYPASS_READ_NEW $end
    $var wire 1 :! clk $end
    $var wire 1 ;! reset $end
    $var wire 1 <! enable $end
    $var wire 1 =! accumulator_mode $end
    $var wire 1 >! buffer_select $end
    $var wire 16 ?! in_col0 [15:0] $end
    $var wire 16 @! in_col1 [15:0] $end
    $var wire 1 A! valid_out $end
    $var wire 32 B! out_col0 [31:0] $end
    $var wire 32 C! out_col1 [31:0] $end
    $var wire 32 D! mem_buff0_col0 [31:0] $end
    $var wire 32 E! mem_buff0_col1 [31:0] $end
    $var wire 32 F! mem_buff1_col0 [31:0] $end
    $var wire 32 G! mem_buff1_col1 [31:0] $end
   $upscope $end
  $upscope $end
  $scope module ap_col0 $end
   $var wire 1 H! clk $end
   $var wire 1 I! reset $end
   $var wire 1 J! valid_in $end
   $var wire 32 K! acc_in [31:0] $end
   $var wire 32 L! target_in [31:0] $end
   $var wire 16 M! norm_gain [15:0] $end
   $var wire 32 N! norm_bias [31:0] $end
   $var wire 5 O! norm_shift [4:0] $end
   $var wire 16 P! q_inv_scale [15:0] $end
   $var wire 8 Q! q_zero_point [7:0] $end
   $var wire 1 R! valid_out $end
   $var wire 8 S! ub_data_out [7:0] $end
   $var wire 1 T! loss_valid $end
   $var wire 32 U! loss_out [31:0] $end
   $var wire 1 V! s1_valid $end
   $var wire 32 W! s1_data [31:0] $end
   $var wire 32 X! target_d1 [31:0] $end
   $var wire 1 Y! s2_valid $end
   $var wire 32 Z! s2_data [31:0] $end
   $var wire 8 [! ub_q_reg [7:0] $end
   $var wire 1 \! valid_reg $end
   $var wire 48 ]! mult [47:0] $end
   $var wire 48 _! mult_rounded [47:0] $end
   $var wire 32 a! scaled [31:0] $end
   $var wire 32 b! biased [31:0] $end
   $scope module act_u $end
    $var wire 2 -$ DEFAULT_ACT [1:0] $end
    $var wire 1 c! clk $end
    $var wire 1 d! reset $end
    $var wire 1 e! valid_in $end
    $var wire 32 f! data_in [31:0] $end
    $var wire 1 g! valid_out $end
    $var wire 32 h! data_out [31:0] $end
   $upscope $end
   $scope module loss_u $end
    $var wire 1 i! clk $end
    $var wire 1 j! reset $end
    $var wire 1 k! valid_in $end
    $var wire 32 l! data_in [31:0] $end
    $var wire 32 m! target_in [31:0] $end
    $var wire 1 n! valid_out $end
    $var wire 32 o! loss_out [31:0] $end
    $var wire 32 p! diff [31:0] $end
    $var wire 32 q! abs_diff [31:0] $end
   $upscope $end
   $scope module norm_u $end
    $var wire 1 r! clk $end
    $var wire 1 s! reset $end
    $var wire 1 t! valid_in $end
    $var wire 32 u! data_in [31:0] $end
    $var wire 16 v! gain [15:0] $end
    $var wire 32 w! bias [31:0] $end
    $var wire 5 x! shift [4:0] $end
    $var wire 1 y! valid_out $end
    $var wire 32 z! data_out [31:0] $end
    $var wire 48 {! mult [47:0] $end
    $var wire 48 }! shifted [47:0] $end
   $upscope $end
  $upscope $end
  $scope module ap_col1 $end
   $var wire 1 !" clk $end
   $var wire 1 "" reset $end
   $var wire 1 #" valid_in $end
   $var wire 32 $" acc_in [31:0] $end
   $var wire 32 %" target_in [31:0] $end
   $var wire 16 &" norm_gain [15:0] $end
   $var wire 32 '" norm_bias [31:0] $end
   $var wire 5 (" norm_shift [4:0] $end
   $var wire 16 )" q_inv_scale [15:0] $end
   $var wire 8 *" q_zero_point [7:0] $end
   $var wire 1 +" valid_out $end
   $var wire 8 ," ub_data_out [7:0] $end
   $var wire 1 -" loss_valid $end
   $var wire 32 ." loss_out [31:0] $end
   $var wire 1 /" s1_valid $end
   $var wire 32 0" s1_data [31:0] $end
   $var wire 32 1" target_d1 [31:0] $end
   $var wire 1 2" s2_valid $end
   $var wire 32 3" s2_data [31:0] $end
   $var wire 8 4" ub_q_reg [7:0] $end
   $var wire 1 5" valid_reg $end
   $var wire 48 6" mult [47:0] $end
   $var wire 48 8" mult_rounded [47:0] $end
   $var wire 32 :" scaled [31:0] $end
   $var wire 32 ;" biased [31:0] $end
   $scope module act_u $end
    $var wire 2 -$ DEFAULT_ACT [1:0] $end
    $var wire 1 <" clk $end
    $var wire 1 =" reset $end
    $var wire 1 >" valid_in $end
    $var wire 32 ?" data_in [31:0] $end
    $var wire 1 @" valid_out $end
    $var wire 32 A" data_out [31:0] $end
   $upscope $end
   $scope module loss_u $end
    $var wire 1 B" clk $end
    $var wire 1 C" reset $end
    $var wire 1 D" valid_in $end
    $var wire 32 E" data_in [31:0] $end
    $var wire 32 F" target_in [31:0] $end
    $var wire 1 G" valid_out $end
    $var wire 32 H" loss_out [31:0] $end
    $var wire 32 I" diff [31:0] $end
    $var wire 32 J" abs_diff [31:0] $end
   $upscope $end
   $scope module norm_u $end
    $var wire 1 K" clk $end
    $var wire 1 L" reset $end
    $var wire 1 M" valid_in $end
    $var wire 32 N" data_in [31:0] $end
    $var wire 16 O" gain [15:0] $end
    $var wire 32 P" bias [31:0] $end
    $var wire 5 Q" shift [4:0] $end
    $var wire 1 R" valid_out $end
    $var wire 32 S" data_out [31:0] $end
    $var wire 48 T" mult [47:0] $end
    $var wire 48 V" shifted [47:0] $end
   $upscope $end
  $upscope $end
  $scope module mmu_u $end
   $var wire 1 X" clk $end
   $var wire 1 Y" reset $end
   $var wire 1 Z" en_weight_pass $end
   $var wire 1 [" en_capture_col0 $end
   $var wire 1 \" en_capture_col1 $end
   $var wire 8 ]" row0_in [7:0] $end
   $var wire 8 ^" row1_in [7:0] $end
   $var wire 8 _" col0_in [7:0] $end
   $var wire 8 `" col1_in [7:0] $end
   $var wire 16 a" acc0_out [15:0] $end
   $var wire 16 b" acc1_out [15:0] $end
   $var wire 8 c" pe00_01_act [7:0] $end
   $var wire 8 d" pe10_11_act [7:0] $end
   $var wire 16 e" pe00_10_psum [15:0] $end
   $var wire 16 f" pe01_11_psum [15:0] $end
   $scope module pe00 $end
    $var wire 1 g" clk $end
    $var wire 1 h" reset $end
    $var wire 1 i" en_weight_pass $end
    $var wire 1 j" en_weight_capture $end
    $var wire 8 k" in_act [7:0] $end
    $var wire 16 l" in_psum [15:0] $end
    $var wire 8 m" out_act [7:0] $end
    $var wire 16 n" out_psum [15:0] $end
    $var wire 8 o" weight [7:0] $end
   $upscope $end
   $scope module pe01 $end
    $var wire 1 p" clk $end
    $var wire 1 q" reset $end
    $var wire 1 r" en_weight_pass $end
    $var wire 1 s" en_weight_capture $end
    $var wire 8 t" in_act [7:0] $end
    $var wire 16 u" in_psum [15:0] $end
    $var wire 8 v" out_act [7:0] $end
    $var wire 16 w" out_psum [15:0] $end
    $var wire 8 x" weight [7:0] $end
   $upscope $end
   $scope module pe10 $end
    $var wire 1 y" clk $end
    $var wire 1 z" reset $end
    $var wire 1 {" en_weight_pass $end
    $var wire 1 |" en_weight_capture $end
    $var wire 8 }" in_act [7:0] $end
    $var wire 16 ~" in_psum [15:0] $end
    $var wire 8 !# out_act [7:0] $end
    $var wire 16 "# out_psum [15:0] $end
    $var wire 8 ## weight [7:0] $end
   $upscope $end
   $scope module pe11 $end
    $var wire 1 $# clk $end
    $var wire 1 %# reset $end
    $var wire 1 &# en_weight_pass $end
    $var wire 1 '# en_weight_capture $end
    $var wire 8 (# in_act [7:0] $end
    $var wire 16 )# in_psum [15:0] $end
    $var wire 8 *# out_act [7:0] $end
    $var wire 16 +# out_psum [15:0] $end
    $var wire 8 ,# weight [7:0] $end
   $upscope $end
  $upscope $end
  $scope module ub_a $end
   $var wire 32 .$ WIDTH [31:0] $end
   $var wire 32 .$ DEPTH [31:0] $end
   $var wire 32 /$ ADDR_W [31:0] $end
   $var wire 1 -# clk $end
   $var wire 1 .# reset $end
   $var wire 1 /# wr_valid $end
   $var wire 16 0# wr_data [15:0] $end
   $var wire 1 1# wr_ready $end
   $var wire 1 2# rd_ready $end
   $var wire 1 3# rd_valid $end
   $var wire 16 4# rd_data [15:0] $end
   $var wire 1 5# full $end
   $var wire 1 6# empty $end
   $var wire 5 7# count [4:0] $end
   $var wire 16 8# mem[0] [15:0] $end
   $var wire 16 9# mem[1] [15:0] $end
   $var wire 16 :# mem[2] [15:0] $end
   $var wire 16 ;# mem[3] [15:0] $end
   $var wire 16 <# mem[4] [15:0] $end
   $var wire 16 =# mem[5] [15:0] $end
   $var wire 16 ># mem[6] [15:0] $end
   $var wire 16 ?# mem[7] [15:0] $end
   $var wire 16 @# mem[8] [15:0] $end
   $var wire 16 A# mem[9] [15:0] $end
   $var wire 16 B# mem[10] [15:0] $end
   $var wire 16 C# mem[11] [15:0] $end
   $var wire 16 D# mem[12] [15:0] $end
   $var wire 16 E# mem[13] [15:0] $end
   $var wire 16 F# mem[14] [15:0] $end
   $var wire 16 G# mem[15] [15:0] $end
   $var wire 4 H# wr_ptr [3:0] $end
   $var wire 4 I# rd_ptr [3:0] $end
   $var wire 1 J# do_write $end
   $var wire 1 K# do_read $end
  $upscope $end
  $scope module ub_b $end
   $var wire 32 .$ WIDTH [31:0] $end
   $var wire 32 .$ DEPTH [31:0] $end
   $var wire 32 /$ ADDR_W [31:0] $end
   $var wire 1 L# clk $end
   $var wire 1 M# reset $end
   $var wire 1 N# wr_valid $end
   $var wire 16 O# wr_data [15:0] $end
   $var wire 1 P# wr_ready $end
   $var wire 1 Q# rd_ready $end
   $var wire 1 R# rd_valid $end
   $var wire 16 S# rd_data [15:0] $end
   $var wire 1 T# full $end
   $var wire 1 U# empty $end
   $var wire 5 V# count [4:0] $end
   $var wire 16 W# mem[0] [15:0] $end
   $var wire 16 X# mem[1] [15:0] $end
   $var wire 16 Y# mem[2] [15:0] $end
   $var wire 16 Z# mem[3] [15:0] $end
   $var wire 16 [# mem[4] [15:0] $end
   $var wire 16 \# mem[5] [15:0] $end
   $var wire 16 ]# mem[6] [15:0] $end
   $var wire 16 ^# mem[7] [15:0] $end
   $var wire 16 _# mem[8] [15:0] $end
   $var wire 16 `# mem[9] [15:0] $end
   $var wire 16 a# mem[10] [15:0] $end
   $var wire 16 b# mem[11] [15:0] $end
   $var wire 16 c# mem[12] [15:0] $end
   $var wire 16 d# mem[13] [15:0] $end
   $var wire 16 e# mem[14] [15:0] $end
   $var wire 16 f# mem[15] [15:0] $end
   $var wire 4 g# wr_ptr [3:0] $end
   $var wire 4 h# rd_ptr [3:0] $end
   $var wire 1 i# do_write $end
   $var wire 1 j# do_read $end
  $upscope $end
  $scope module weight_fifo_u $end
   $var wire 1 k# clk $end
   $var wire 1 l# reset $end
   $var wire 1 m# push_col0 $end
   $var wire 1 n# push_col1 $end
   $var wire 8 o# data_in [7:0] $end
   $var wire 1 p# pop $end
   $var wire 8 q# col0_out [7:0] $end
   $var wire 8 r# col1_out [7:0] $end
   $var wire 8 s# col1_raw [7:0] $end
   $var wire 8 t# queue0[0] [7:0] $end
   $var wire 8 u# queue0[1] [7:0] $end
   $var wire 8 v# queue0[2] [7:0] $end
   $var wire 8 w# queue0[3] [7:0] $end
   $var wire 8 x# queue1[0] [7:0] $end
   $var wire 8 y# queue1[1] [7:0] $end
   $var wire 8 z# queue1[2] [7:0] $end
   $var wire 8 {# queue1[3] [7:0] $end
   $var wire 2 |# wr_ptr0 [1:0] $end
   $var wire 2 }# rd_ptr0 [1:0] $end
   $var wire 2 ~# wr_ptr1 [1:0] $end
   $var wire 2 !$ rd_ptr1 [1:0] $end
  $upscope $end
 $upscope $end
$enddefinitions $end


#0
1#
1$
0%
0&
b00000000 '
0(
0)
b0000000000000000 *
0+
0,
b0000000000000000 -
b00000000000000000000000000000000 .
b00000 /
b0000000000000000 0
b00000000 1
b0000 2
b00000 3
b000 4
05
b0000000000000000 6
b0000000000000000 7
b00000000000000000000000000000000 8
b00000000000000000000000000000000 9
0:
1;
1<
0=
0>
b00000000 ?
0@
0A
b0000000000000000 B
0C
0D
b0000000000000000 E
b00000000000000000000000000000000 F
b00000 G
b0000000000000000 H
b00000000 I
b0000 J
b00000 K
b000 L
0M
b0000000000000000 N
b0000000000000000 O
b00000000000000000000000000000000 P
b00000000000000000000000000000000 Q
0R
b0000 S
b00000 T
b000 U
0V
0W
0X
0Y
0Z
0[
b00000000 \
b00000000 ]
b00000000 ^
0_
0`
b0000000000000000 a
b0000000000000000 b
1c
0d
1e
0f
0g
b0000000000000000 h
b0000000000000000 i
1j
0k
1l
0m
b0000000000000000 n
1o
b00000000 p
b00000000 q
b00000000 r
b00000000 s
b00000000 t
b00000000 u
b00000000 v
0w
0x
0y
0z
0{
0|
b00000000 }
b00000000 ~
0!!
b0000000000000000 "!
1#!
1$!
0%!
0&!
0'!
b0000000000000000 (!
b0000000000000000 )!
b00000000000000000000000000000000 *!
b00000000000000000000000000000000 +!
0,!
0-!
b0000000000000000 .!
b0000000000000000 /!
10!
11!
02!
b0000000000000000 3!
b0000000000000000 4!
05!
b0000000000000000 6!
b0000000000000000 7!
b0000000000000000 8!
09!
1:!
1;!
0<!
0=!
0>!
b0000000000000000 ?!
b0000000000000000 @!
0A!
b00000000000000000000000000000000 B!
b00000000000000000000000000000000 C!
b00000000000000000000000000000000 D!
b00000000000000000000000000000000 E!
b00000000000000000000000000000000 F!
b00000000000000000000000000000000 G!
1H!
1I!
0J!
b00000000000000000000000000000000 K!
b00000000000000000000000000000000 L!
b0000000000000000 M!
b00000000000000000000000000000000 N!
b00000 O!
b0000000000000000 P!
b00000000 Q!
0R!
b00000000 S!
0T!
b00000000000000000000000000000000 U!
0V!
b00000000000000000000000000000000 W!
b00000000000000000000000000000000 X!
0Y!
b00000000000000000000000000000000 Z!
b00000000 [!
0\!
b000000000000000000000000000000000000000000000000 ]!
b000000000000000000000000000000000000000010000000 _!
b00000000000000000000000000000000 a!
b00000000000000000000000000000000 b!
1c!
1d!
0e!
b00000000000000000000000000000000 f!
0g!
b00000000000000000000000000000000 h!
1i!
1j!
0k!
b00000000000000000000000000000000 l!
b00000000000000000000000000000000 m!
0n!
b00000000000000000000000000000000 o!
b00000000000000000000000000000000 p!
b00000000000000000000000000000000 q!
1r!
1s!
0t!
b00000000000000000000000000000000 u!
b0000000000000000 v!
b00000000000000000000000000000000 w!
b00000 x!
0y!
b00000000000000000000000000000000 z!
b000000000000000000000000000000000000000000000000 {!
b000000000000000000000000000000000000000000000000 }!
1!"
1""
0#"
b00000000000000000000000000000000 $"
b00000000000000000000000000000000 %"
b0000000000000000 &"
b00000000000000000000000000000000 '"
b00000 ("
b0000000000000000 )"
b00000000 *"
0+"
b00000000 ,"
0-"
b00000000000000000000000000000000 ."
0/"
b00000000000000000000000000000000 0"
b00000000000000000000000000000000 1"
02"
b00000000000000000000000000000000 3"
b00000000 4"
05"
b000000000000000000000000000000000000000000000000 6"
b000000000000000000000000000000000000000010000000 8"
b00000000000000000000000000000000 :"
b00000000000000000000000000000000 ;"
1<"
1="
0>"
b00000000000000000000000000000000 ?"
0@"
b00000000000000000000000000000000 A"
1B"
1C"
0D"
b00000000000000000000000000000000 E"
b00000000000000000000000000000000 F"
0G"
b00000000000000000000000000000000 H"
b00000000000000000000000000000000 I"
b00000000000000000000000000000000 J"
1K"
1L"
0M"
b00000000000000000000000000000000 N"
b0000000000000000 O"
b00000000000000000000000000000000 P"
b00000 Q"
0R"
b00000000000000000000000000000000 S"
b000000000000000000000000000000000000000000000000 T"
b000000000000000000000000000000000000000000000000 V"
1X"
1Y"
0Z"
0["
0\"
b00000000 ]"
b00000000 ^"
b00000000 _"
b00000000 `"
b0000000000000000 a"
b0000000000000000 b"
b00000000 c"
b00000000 d"
b0000000000000000 e"
b0000000000000000 f"
1g"
1h"
0i"
0j"
b00000000 k"
b0000000000000000 l"
b00000000 m"
b0000000000000000 n"
b00000000 o"
1p"
1q"
0r"
0s"
b00000000 t"
b0000000000000000 u"
b00000000 v"
b0000000000000000 w"
b00000000 x"
1y"
1z"
0{"
0|"
b00000000 }"
b0000000000000000 ~"
b00000000 !#
b0000000000000000 "#
b00000000 ##
1$#
1%#
0&#
0'#
b00000000 (#
b0000000000000000 )#
b00000000 *#
b0000000000000000 +#
b00000000 ,#
1-#
1.#
0/#
b0000000000000000 0#
11#
02#
03#
b0000000000000000 4#
05#
16#
b00000 7#
b0000000000000000 8#
b0000000000000000 9#
b0000000000000000 :#
b0000000000000000 ;#
b0000000000000000 <#
b0000000000000000 =#
b0000000000000000 >#
b0000000000000000 ?#
b0000000000000000 @#
b0000000000000000 A#
b0000000000000000 B#
b0000000000000000 C#
b0000000000000000 D#
b0000000000000000 E#
b0000000000000000 F#
b0000000000000000 G#
b0000 H#
b0000 I#
0J#
0K#
1L#
1M#
0N#
b0000000000000000 O#
1P#
0Q#
0R#
b0000000000000000 S#
0T#
1U#
b00000 V#
b0000000000000000 W#
b0000000000000000 X#
b0000000000000000 Y#
b0000000000000000 Z#
b0000000000000000 [#
b0000000000000000 \#
b0000000000000000 ]#
b0000000000000000 ^#
b0000000000000000 _#
b0000000000000000 `#
b0000000000000000 a#
b0000000000000000 b#
b0000000000000000 c#
b0000000000000000 d#
b0000000000000000 e#
b0000000000000000 f#
b0000 g#
b0000 h#
0i#
0j#
1k#
1l#
0m#
0n#
b00000000 o#
0p#
b00000000 q#
b00000000 r#
b00000000 s#
b00000000 t#
b00000000 u#
b00000000 v#
b00000000 w#
b00000000 x#
b00000000 y#
b00000000 z#
b00000000 {#
b00 |#
b00 }#
b00 ~#
b00 !$
b0000 "$
b0001 #$
b0010 $$
b0011 %$
b0100 &$
b0101 '$
b0110 ($
b0111 )$
b1000 *$
b00000000000000000000000000000010 +$
1,$
b01 -$
b00000000000000000000000000010000 .$
b00000000000000000000000000000100 /$
#5000
0#
0;
0#!
00!
0:!
0H!
0c!
0i!
0r!
0!"
0<"
0B"
0K"
0X"
0g"
0p"
0y"
0$#
0-#
0L#
0k#
#10000
1#
0$
1;
0<
1#!
0$!
10!
01!
1:!
0;!
1H!
0I!
1c!
0d!
1i!
0j!
1r!
0s!
1!"
0""
1<"
0="
1B"
0C"
1K"
0L"
1X"
0Y"
1g"
0h"
1p"
0q"
1y"
0z"
1$#
0%#
1-#
0.#
1L#
0M#
1k#
0l#
#15000
0#
0;
0#!
00!
0:!
0H!
0c!
0i!
0r!
0!"
0<"
0B"
0K"
0X"
0g"
0p"
0y"
0$#
0-#
0L#
0k#
#20000
1#
1;
1#!
10!
1:!
1H!
1c!
1i!
1r!
1!"
1<"
1B"
1K"
1X"
1g"
1p"
1y"
1$#
1-#
1L#
1k#
#25000
0#
0;
0#!
00!
0:!
0H!
0c!
0i!
0r!
0!"
0<"
0B"
0K"
0X"
0g"
0p"
0y"
0$#
0-#
0L#
0k#
#30000
1#
1%
b00000011 '
1;
1=
b00000011 ?
1#!
10!
1:!
1H!
1c!
1i!
1r!
1!"
1<"
1B"
1K"
1X"
1g"
1p"
1y"
1$#
1-#
1L#
1k#
1m#
b00000011 o#
#35000
0#
b00000001 '
0;
b00000001 ?
0#!
00!
0:!
0H!
0c!
0i!
0r!
0!"
0<"
0B"
0K"
0X"
0g"
0p"
0y"
0$#
0-#
0L#
0k#
b00000001 o#
#40000
1#
1;
b00000001 \
1#!
10!
1:!
1H!
1c!
1i!
1r!
1!"
1<"
1B"
1K"
1X"
1g"
1p"
1y"
1$#
1-#
1L#
1k#
b00000001 q#
b00000001 t#
b01 |#
#45000
0#
0%
1&
b00000100 '
0;
0=
1>
b00000100 ?
0#!
00!
0:!
0H!
0c!
0i!
0r!
0!"
0<"
0B"
0K"
0X"
0g"
0p"
0y"
0$#
0-#
0L#
0k#
0m#
1n#
b00000100 o#
#50000
1#
1;
b00000100 ^
1#!
10!
1:!
1H!
1c!
1i!
1r!
1!"
1<"
1B"
1K"
1X"
1g"
1p"
1y"
1$#
1-#
1L#
1k#
b00000100 s#
b00000100 x#
b01 ~#
#55000
0#
b00000010 '
0;
b00000010 ?
0#!
00!
0:!
0H!
0c!
0i!
0r!
0!"
0<"
0B"
0K"
0X"
0g"
0p"
0y"
0$#
0-#
0L#
0k#
b00000010 o#
#60000
1#
1;
1#!
10!
1:!
1H!
1c!
1i!
1r!
1!"
1<"
1B"
1K"
1X"
1g"
1p"
1y"
1$#
1-#
1L#
1k#
b00000010 y#
b10 ~#
#65000
0#
0&
0;
0>
0#!
00!
0:!
0H!
0c!
0i!
0r!
0!"
0<"
0B"
0K"
0X"
0g"
0p"
0y"
0$#
0-#
0L#
0k#
0n#
#70000
1#
1;
1#!
10!
1:!
1H!
1c!
1i!
1r!
1!"
1<"
1B"
1K"
1X"
1g"
1p"
1y"
1$#
1-#
1L#
1k#
#75000
0#
0;
0#!
00!
0:!
0H!
0c!
0i!
0r!
0!"
0<"
0B"
0K"
0X"
0g"
0p"
0y"
0$#
0-#
0L#
0k#
#80000
1#
1;
1#!
10!
1:!
1H!
1c!
1i!
1r!
1!"
1<"
1B"
1K"
1X"
1g"
1p"
1y"
1$#
1-#
1L#
1k#
#85000
0#
0;
0#!
00!
0:!
0H!
0c!
0i!
0r!
0!"
0<"
0B"
0K"
0X"
0g"
0p"
0y"
0$#
0-#
0L#
0k#
#90000
1#
1;
1#!
10!
1:!
1H!
1c!
1i!
1r!
1!"
1<"
1B"
1K"
1X"
1g"
1p"
1y"
1$#
1-#
1L#
1k#
#95000
0#
0;
0#!
00!
0:!
0H!
0c!
0i!
0r!
0!"
0<"
0B"
0K"
0X"
0g"
0p"
0y"
0$#
0-#
0L#
0k#
#100000
1#
1;
1#!
10!
1:!
1H!
1c!
1i!
1r!
1!"
1<"
1B"
1K"
1X"
1g"
1p"
1y"
1$#
1-#
1L#
1k#
#105000
0#
0;
0#!
00!
0:!
0H!
0c!
0i!
0r!
0!"
0<"
0B"
0K"
0X"
0g"
0p"
0y"
0$#
0-#
0L#
0k#
#110000
1#
1;
1#!
10!
1:!
1H!
1c!
1i!
1r!
1!"
1<"
1B"
1K"
1X"
1g"
1p"
1y"
1$#
1-#
1L#
1k#
#115000
0#
0;
0#!
00!
0:!
0H!
0c!
0i!
0r!
0!"
0<"
0B"
0K"
0X"
0g"
0p"
0y"
0$#
0-#
0L#
0k#
#120000
1#
1;
1#!
10!
1:!
1H!
1c!
1i!
1r!
1!"
1<"
1B"
1K"
1X"
1g"
1p"
1y"
1$#
1-#
1L#
1k#
#120001
1$
1<
b00000000 \
b00000000 ^
1$!
11!
1;!
1I!
1d!
1j!
1s!
1""
1="
1C"
1L"
1Y"
1h"
1q"
1z"
1%#
1.#
1M#
1l#
b00000000 q#
b00000000 s#
b00000000 t#
b00000000 x#
b00000000 y#
b00 |#
b00 ~#
#125001
0#
0;
0#!
00!
0:!
0H!
0c!
0i!
0r!
0!"
0<"
0B"
0K"
0X"
0g"
0p"
0y"
0$#
0-#
0L#
0k#
#130001
1#
1;
1#!
10!
1:!
1H!
1c!
1i!
1r!
1!"
1<"
1B"
1K"
1X"
1g"
1p"
1y"
1$#
1-#
1L#
1k#
#135001
0#
0;
0#!
00!
0:!
0H!
0c!
0i!
0r!
0!"
0<"
0B"
0K"
0X"
0g"
0p"
0y"
0$#
0-#
0L#
0k#
#140001
1#
0$
1;
0<
1#!
0$!
10!
01!
1:!
0;!
1H!
0I!
1c!
0d!
1i!
0j!
1r!
0s!
1!"
0""
1<"
0="
1B"
0C"
1K"
0L"
1X"
0Y"
1g"
0h"
1p"
0q"
1y"
0z"
1$#
0%#
1-#
0.#
1L#
0M#
1k#
0l#
#145001
0#
0;
0#!
00!
0:!
0H!
0c!
0i!
0r!
0!"
0<"
0B"
0K"
0X"
0g"
0p"
0y"
0$#
0-#
0L#
0k#
#150001
1#
b00000000 '
b0000000100000000 -
b01000 /
b0000000100000000 0
1;
b00000000 ?
b0000000100000000 E
b01000 G
b0000000100000000 H
1#!
10!
1:!
1H!
b0000000100000000 M!
b01000 O!
b0000000100000000 P!
1c!
1i!
1r!
b0000000100000000 v!
b01000 x!
1!"
b0000000100000000 &"
b01000 ("
b0000000100000000 )"
1<"
1B"
1K"
b0000000100000000 O"
b01000 Q"
1X"
1g"
1p"
1y"
1$#
1-#
1L#
1k#
b00000000 o#
